{
    "name": "InputMaster",
    "maps": [
        {
            "name": "Player",
            "id": "31dd9b97-523c-4c7b-b74b-96f3b82b3d19",
            "actions": [
                {
                    "name": "Shoot",
                    "type": "Button",
                    "id": "60891cbb-8d79-4450-a6df-115935eece74",
                    "expectedControlType": "Button",
                    "processors": "",
                    "interactions": ""
                },
                {
                    "name": "Movement",
                    "type": "PassThrough",
                    "id": "b6287fd5-31f4-4dfc-ba6b-53ae5f39ef76",
                    "expectedControlType": "Vector2",
                    "processors": "",
                    "interactions": ""
                },
                {
                    "name": "Pause/Start",
                    "type": "Button",
                    "id": "4093a9b3-13ff-4466-8694-2a69f34be8ef",
                    "expectedControlType": "",
                    "processors": "",
                    "interactions": ""
                },
                {
                    "name": "Open Inventory",
                    "type": "Button",
                    "id": "324efcbf-4ca1-4e45-88cc-012149d94206",
                    "expectedControlType": "",
                    "processors": "",
                    "interactions": ""
                },
                {
                    "name": "Reload",
                    "type": "Button",
                    "id": "405d9bab-1daf-4a60-b6fe-d48d3c37fd38",
                    "expectedControlType": "",
                    "processors": "",
                    "interactions": "Press"
                }
            ],
            "bindings": [
                {
                    "name": "",
                    "id": "ff0105f5-f15c-4ed3-a874-21d2b2e74643",
                    "path": "<Mouse>/leftButton",
                    "interactions": "",
                    "processors": "",
                    "groups": "Mouse and Keyboard",
                    "action": "Shoot",
                    "isComposite": false,
                    "isPartOfComposite": false
                },
                {
                    "name": "",
                    "id": "b978e5ee-aeba-4082-9702-1a9ff8859f98",
                    "path": "<Gamepad>/rightTrigger",
                    "interactions": "",
                    "processors": "",
                    "groups": "Gamepad",
                    "action": "Shoot",
                    "isComposite": false,
                    "isPartOfComposite": false
                },
                {
                    "name": "WASD",
                    "id": "4e16df13-65df-4a54-9061-b393928c6bb5",
                    "path": "2DVector",
                    "interactions": "",
                    "processors": "",
                    "groups": "",
                    "action": "Movement",
                    "isComposite": true,
                    "isPartOfComposite": false
                },
                {
                    "name": "up",
                    "id": "a61267c2-7641-4581-a2bf-7836aae0e0cf",
                    "path": "<Keyboard>/w",
                    "interactions": "",
                    "processors": "",
                    "groups": "Mouse and Keyboard",
                    "action": "Movement",
                    "isComposite": false,
                    "isPartOfComposite": true
                },
                {
                    "name": "down",
                    "id": "06ba8012-bf80-43b7-9968-6f9058215049",
                    "path": "<Keyboard>/s",
                    "interactions": "",
                    "processors": "",
                    "groups": "Mouse and Keyboard",
                    "action": "Movement",
                    "isComposite": false,
                    "isPartOfComposite": true
                },
                {
                    "name": "left",
                    "id": "901826a7-8f75-41c4-9647-7905db64efd7",
                    "path": "<Keyboard>/a",
                    "interactions": "",
                    "processors": "",
                    "groups": "Mouse and Keyboard",
                    "action": "Movement",
                    "isComposite": false,
                    "isPartOfComposite": true
                },
                {
                    "name": "right",
                    "id": "6792fad9-aa86-474b-9b18-ead9226bf452",
                    "path": "<Keyboard>/d",
                    "interactions": "",
                    "processors": "",
                    "groups": "Mouse and Keyboard",
                    "action": "Movement",
                    "isComposite": false,
                    "isPartOfComposite": true
                },
                {
                    "name": "Arrow Keys",
                    "id": "9aad3e09-cec1-413f-baf7-eff63d8d1faa",
                    "path": "2DVector",
                    "interactions": "",
                    "processors": "",
                    "groups": "",
                    "action": "Movement",
                    "isComposite": true,
                    "isPartOfComposite": false
                },
                {
                    "name": "up",
                    "id": "8d517f1a-b815-4cf5-bcf6-5b1a7a710722",
                    "path": "<Keyboard>/upArrow",
                    "interactions": "",
                    "processors": "",
                    "groups": "Mouse and Keyboard",
                    "action": "Movement",
                    "isComposite": false,
                    "isPartOfComposite": true
                },
                {
                    "name": "down",
                    "id": "788409d4-a59f-4298-a7fa-8a209ae6cec7",
                    "path": "<Keyboard>/downArrow",
                    "interactions": "",
                    "processors": "",
                    "groups": "Mouse and Keyboard",
                    "action": "Movement",
                    "isComposite": false,
                    "isPartOfComposite": true
                },
                {
                    "name": "left",
                    "id": "fe5b8739-8ddc-4016-a4ee-0434b6db43cf",
                    "path": "<Keyboard>/leftArrow",
                    "interactions": "",
                    "processors": "",
                    "groups": "Mouse and Keyboard",
                    "action": "Movement",
                    "isComposite": false,
                    "isPartOfComposite": true
                },
                {
                    "name": "right",
                    "id": "eabad460-48e4-474e-a3e5-f78c53a0586c",
                    "path": "<Keyboard>/rightArrow",
                    "interactions": "",
                    "processors": "",
                    "groups": "Mouse and Keyboard",
                    "action": "Movement",
                    "isComposite": false,
                    "isPartOfComposite": true
                },
                {
                    "name": "",
                    "id": "f4278ef7-1fb0-459e-81fa-06740baf89e3",
                    "path": "<Gamepad>/leftStick",
                    "interactions": "",
                    "processors": "",
                    "groups": "Gamepad",
                    "action": "Movement",
                    "isComposite": false,
                    "isPartOfComposite": false
                },
                {
                    "name": "",
                    "id": "efc2af7d-12f5-4876-8bf8-24543ff93712",
                    "path": "<Keyboard>/escape",
                    "interactions": "",
                    "processors": "",
                    "groups": "Mouse and Keyboard",
                    "action": "Pause/Start",
                    "isComposite": false,
                    "isPartOfComposite": false
                },
                {
                    "name": "",
                    "id": "14c5e3d4-9bb6-45c8-9907-940758b5c3f7",
                    "path": "<Gamepad>/start",
                    "interactions": "",
                    "processors": "",
                    "groups": "Gamepad",
                    "action": "Pause/Start",
                    "isComposite": false,
                    "isPartOfComposite": false
                },
                {
                    "name": "",
                    "id": "f67b8abc-e660-4b04-a9c9-76847196f19f",
                    "path": "<Keyboard>/tab",
                    "interactions": "",
                    "processors": "",
                    "groups": "Mouse and Keyboard",
                    "action": "Open Inventory",
                    "isComposite": false,
                    "isPartOfComposite": false
                },
                {
                    "name": "",
                    "id": "e1890f9c-7609-4a0d-92aa-a6bd850f46e3",
                    "path": "<Keyboard>/i",
                    "interactions": "",
                    "processors": "",
                    "groups": "Mouse and Keyboard",
                    "action": "Open Inventory",
                    "isComposite": false,
                    "isPartOfComposite": false
                },
                {
                    "name": "",
                    "id": "3f589ef5-ab21-453b-8fc4-c8663d9698b2",
                    "path": "<Gamepad>/select",
                    "interactions": "",
                    "processors": "",
                    "groups": "Gamepad",
                    "action": "Open Inventory",
                    "isComposite": false,
                    "isPartOfComposite": false
                },
                {
                    "name": "",
                    "id": "83ea3182-5c9a-4de6-9f9a-481f14fa144b",
                    "path": "<Keyboard>/r",
                    "interactions": "",
                    "processors": "",
                    "groups": "Mouse and Keyboard",
                    "action": "Reload",
                    "isComposite": false,
                    "isPartOfComposite": false
                }
            ]
        }
    ],
    "controlSchemes": [
        {
            "name": "Mouse and Keyboard",
            "bindingGroup": "Mouse and Keyboard",
            "devices": [
                {
                    "devicePath": "<Mouse>",
                    "isOptional": false,
                    "isOR": false
                },
                {
                    "devicePath": "<Keyboard>",
                    "isOptional": false,
                    "isOR": false
                }
            ]
        },
        {
            "name": "Gamepad",
            "bindingGroup": "Gamepad",
            "devices": [
                {
                    "devicePath": "<Gamepad>",
                    "isOptional": false,
                    "isOR": false
                }
            ]
        }
    ]
}